%YAML 1.1
%TAG !u! tag:unity3d.com,2011:
--- !u!114 &11400000
MonoBehaviour:
  m_ObjectHideFlags: 0
  m_CorrespondingSourceObject: {fileID: 0}
  m_PrefabInstance: {fileID: 0}
  m_PrefabAsset: {fileID: 0}
  m_GameObject: {fileID: 0}
  m_Enabled: 1
  m_EditorHideFlags: 0
  m_Script: {fileID: 11500000, guid: bbb281ee3bf0b054c82ac2347e9e782c, type: 3}
  m_Name: Localization-String-Tables-Spanish (es)
  m_EditorClassIdentifier: 
  m_GroupName: Localization-String-Tables-Spanish (es)
  m_Data:
    m_SerializedData: []
  m_GUID: fa478da739881c945bea52448f20c09b
  m_SerializeEntries:
  - m_GUID: d81eeb14491dd48e7944140e5d99597f
    m_Address: ReasonsUX_es
    m_ReadOnly: 1
    m_SerializedLabels:
    - Locale-es
  m_ReadOnly: 1
  m_Settings: {fileID: 11400000, guid: 1dd1cc1898d0db74cbb47e11d6b713d3, type: 2}
  m_SchemaSet:
    m_Schemas:
    - {fileID: 11400000, guid: 56e73086c8f29e14590b0948e3eb6cb1, type: 2}
    - {fileID: 11400000, guid: 76263dd195bee244da44a4667c9142df, type: 2}
