%YAML 1.1
%TAG !u! tag:unity3d.com,2011:
--- !u!114 &11400000
MonoBehaviour:
  m_ObjectHideFlags: 0
  m_CorrespondingSourceObject: {fileID: 0}
  m_PrefabInstance: {fileID: 0}
  m_PrefabAsset: {fileID: 0}
  m_GameObject: {fileID: 0}
  m_Enabled: 1
  m_EditorHideFlags: 0
  m_Script: {fileID: 11500000, guid: d4c2d9ce944146ff90950f0f03051619, type: 3}
  m_Name: _SoundyDatabase
  m_EditorClassIdentifier: 
  DatabaseNames:
  - Example Alerts
  - Example Clicks
  - Example Music
  - Example Slides
  - General
  SoundDatabases:
  - {fileID: 11400000, guid: 8eba2c230cbe4f84e8ba00ed7ba55028, type: 2}
  - {fileID: 11400000, guid: 6752d2ca1725cf840b858b622a96bb77, type: 2}
  - {fileID: 11400000, guid: d6efd9700ef4c504f997ee462880e61e, type: 2}
  - {fileID: 11400000, guid: f357811014801dc489af9b0c14c815e3, type: 2}
  - {fileID: 11400000, guid: 9c90ea88e8a80134993a91ffcc77f828, type: 2}
