%YAML 1.1
%TAG !u! tag:unity3d.com,2011:
--- !u!114 &11400000
MonoBehaviour:
  m_ObjectHideFlags: 0
  m_CorrespondingSourceObject: {fileID: 0}
  m_PrefabInstance: {fileID: 0}
  m_PrefabAsset: {fileID: 0}
  m_GameObject: {fileID: 0}
  m_Enabled: 1
  m_EditorHideFlags: 0
  m_Script: {fileID: 11500000, guid: 2219bf6f41194122bb8719d6ccb29f01, type: 3}
  m_Name: NodyWindowSettings
  m_EditorClassIdentifier: 
  DotAnimationCurve:
    serializedVersion: 2
    m_Curve:
    - serializedVersion: 3
      time: 0
      value: 0
      inSlope: 1.5
      outSlope: 1.5
      tangentMode: 0
      weightedMode: 0
      inWeight: 0
      outWeight: 0
    - serializedVersion: 3
      time: 1
      value: 1
      inSlope: 0.2
      outSlope: 0.2
      tangentMode: 0
      weightedMode: 0
      inWeight: 0
      outWeight: 0
    m_PreInfinity: 2
    m_PostInfinity: 2
    m_RotationOrder: 4
  CurrentGraph: {fileID: 11400000, guid: 41f883e6c6a330343a2f5c3181131563, type: 2}
  RecentlyOpenedGraphs:
  - {fileID: 11400000, guid: 41f883e6c6a330343a2f5c3181131563, type: 2}
  - {fileID: 11400000, guid: 7aa078f73ef5b5548831e32fd597b98f, type: 2}
  - {fileID: 11400000, guid: ef031d076bfc0c7409f4414d9726cf88, type: 2}
  CopiedNodes: []
  DeletedNodes: []
  SelectedNodes:
  - {fileID: 106203065517039964, guid: 41f883e6c6a330343a2f5c3181131563, type: 2}
  GraphTabs:
  - IsRootTab: 1
    Graph: {fileID: 11400000, guid: 41f883e6c6a330343a2f5c3181131563, type: 2}
    SubGraphNode: {fileID: 0}
    Zoom: 1.3
    PanOffset: {x: 288.92734, y: 257.6354}
    SelectedNodes: []
    DeletedNodes: []
  CurrentView: 1
  CurrentPanOffset: {x: 509.52155, y: 361.0367}
  DefaultPanOffset: {x: 0, y: 0}
  IsDirty: 0
  SaveCurrentGraphWithControlS: 1
  CurrentDotAnimationSpeed: 0.6
  CurrentZoom: 0.6
  DefaultDotAnimationSpeed: 0.6
  DefaultZoom: 1
  ShowNodeNotes: 1
